,,,,
1,Super Mario 64 DS,3,11,1
2,Lumines: Puzzle Fusion,3,7,6
3,WarioWare Touched!,3,11,4
4,Hot Shots Golf: Open Tee,3,6,9
5,Spider-Man 2,16,2,1
6,The Urbz: Sims in the City,3,3,8
7,Ridge Racer,3,4,2
8,Metal Gear Ac!d,8,15,6
9,Madden NFL 005,8,3,9
10,Pokmon Dash,3,11,2
11,Dynasty Warriors,8,10,1
12,Feel the Magic XY/XX,3,8,1
13,Ridge Racer DS,3,4,2
14,Darkstalkers Chronicle: The Chaos Tower,3,1,11
15,Ape Escape Academy,3,6,11
16,Polarium,3,11,6
17,Asphalt: Urban GT,8,7,2
18,Zoo Keeper,8,7,11
19,Mr. DRILLER: Drill Spirits,3,4,7
20,Sprung,3,7,7
21,Armored Core: Formula Front - Extreme Battle,3,8,4
22,Puyo Pop Fever,3,8,4
23,Mario Kart DS,3,11,2
24,Nintendogs,16,11,8
25,Brain Age: Train Your Brain in Minutes a Day!,3,11,4
26,Brain Agey: More Training in Minutes a Day!,3,11,1
27,Grand Theft Auto: Liberty City Stories,12,5,1
28,Animal Crossing: Wild World,3,11,8
29,Big Brain Academy,3,11,1
30,Call of Duty 2,12,15,4
31,Midnight Club 3: DUB Edition,16,5,2
32,Need for Speed: Most Wanted 5-1-0,12,3,2
33,Pokmon Mystery Dungeon: Blue Rescue Team,3,11,5
34,Sonic Rush,3,8,1
35,Star Wars: Battlefront II,3,8,1
36,SOCOM: U.S. Navy SEALs - Fireteam Bravo,3,6,11
37,Need for Speed: Most Wanted,12,3,7
38,Zoo Tycoon DS,16,13,8
39,The Sims 2,3,3,5
40,Mario & Luigi: Partners in Time,3,11,11
41,Madden NFL 06,3,3,9
42,Need for Speed Underground: Rivals,3,3,2
43,Twisted Metal: Head-On,3,6,11
44,Perfect Dark Zero,12,9,11
45,Super Monkey Ball: Touch & Roll,12,8,11
46,Super Princess Peach,12,11,10
47,Burnout Legends,3,3,10
48,Clubhouse Games,8,11,7
49,ATV Offroad Fury: Blazin' Trails,16,6,2
50,Untold Legends: Brotherhood of the Blade,12,2,1
51,Tony Hawk's Underground 2: Remix,12,2,9
52,WipEout Pure,3,6,4
53,NBA Live 06,12,3,9
54,WWE Smackdown vs. Raw 006,3,13,4
55,Dead or Alive 4,3,13,4
56,Phoenix Wright: Ace Attorney,16,1,3
57,NFL Street 2,8,3,9
58,Kirby: Canvas Curse,3,11,4
59,Battlefield 2: Modern Combat,8,3,4
60,Yoshi Touch & Go,12,11,4
61,Tiger Woods PGA Tour 06,3,3,9
62,Condemned: Criminal Origins,12,8,1
63,Peter Jackson's King Kong: The Official Game of...,12,7,1
64,Castlevania: Dawn of Sorrow,3,15,1
65,SpongeBob SquarePants: The Yellow Avenger,12,13,11
66,Marvel Nemesis: Rise of the Imperfects ,12,3,1
67,Kameo: Elements of Power,12,9,1
68,Advance Wars: Dual Strike,8,11,6
69,Trauma Center: Under the Knife,16,11,7
70,Coded Arms,3,15,4
71,NBA LIVE 06 ,3,3,9
72,Tony Hawk's American Wasteland,3,2,9
73,Star Wars: Episode III - Revenge of the Sith,3,7,1
74,Capcom Classics Collection Remixed,3,1,11
75,Madagascar,16,2,3
76,X-Men: Legends II - Rise of Apocalypse,3,2,11
77,Quake 4,3,2,11
78,Pokmon Trozei!,3,11,6
79,Mega Man Maverick Hunter X,3,1,11
80,Metroid Prime Pinball,3,11,11
81,NBA 06,3,6,9
82,GUN ,3,2,10
83,NBA 2K6 ,8,14,9
84,Pinball Hall of Fame: The Gottlieb Collection,12,15,4
85,Harry Potter and the Goblet of Fire,3,3,4
86,Tony Hawk's American Sk8land,16,2,9
87,MVP Baseball,3,3,9
88,Tiger Woods PGA Tour,3,3,9
89,World Series of Poker,3,2,9
90,SSX on Tour,12,3,9
91,Death Jr.,12,15,11
92,MediEvil Resurrection,12,6,10
93,The Chronicles of Narnia: The Lion the Witch a...,3,6,4
94,Shrek SuperSlam,16,2,4
95,Virtua Tennis: World Tour,3,8,9
96,Prince of Persia: Revelations,3,7,10
97,Meteos,3,11,6
98,Spyro: Shadow Legacy,3,11,5
99,The Con,3,6,10
100,Infected,16,6,1
101,Pursuit Force,3,6,1
102,Kingdom of Paradise,3,6,7
103,Dragon Ball Z: Supersonic Warriors 2,12,17,1
104,Dragon Quest Heroes: Rocket Slime,3,10,4
105,Dead to Rights: Reckoning,3,4,4
106,Amped 3,12,14,9
107,Break 'em All,16,15,4
108,Lunar: Dragon Song,3,7,5
109,Retro Atari Classics,3,17,4
110,True Swing Golf,3,11,9
111,FIFA Soccer,3,3,9
112,Metal Gear Ac!d 2,12,15,6
113,ATV Quad Frenzy,3,15,2
114,Bomberman,12,7,6
115,GoldenEye: Rogue Agent,12,3,4
116,Need for Speed Underground 2,3,18,2
117,Frogger: Helmet Chaos,10,15,4
118,The Lord of the Rings: Tactics,3,3,5
119,Rengoku: The Tower of Purgatory,3,15,4
120,Gretzky NHL,3,6,9
121,Ridge Racer 6,3,3,2
122,Ford Racing 3,12,3,7
123,NHL 2K6 ,3,14,9
124,Bust-a-Move DS,3,14,1
125,Battles of Prince of Persia,3,7,6
126,GripShift,12,7,2
127,Scooby-Doo! Unmasked,3,13,11
128,Viewtiful Joe: Double Trouble!,12,1,4
129,The Legend of Heroes: A Tear of Vermillion,3,1,5
130,PQ: Practical Intelligence Quotient,8,1,6
131,Lost in Blue,3,15,5
132,Ghost in the Shell: Stand Alone Complex,3,6,4
133,Dig Dug: Digging Strike,3,4,4
134,Mega Man Battle Network 5: Double Team DS,3,1,4
135,Nanostray,10,13,4
136,Sega Casino,8,8,8
137,Teenage Mutant Ninja Turtles 3: Mutant Nightmare,3,15,4
138,Pac-Man World 3,8,3,11
139,Tokobot,10,3,6
140,Fullmetal Alchemist: Dual Sympathy,3,3,11
141,Exit,10,7,1
142,Bubble Bobble Revolution,10,7,10
143,The Rub Rabbits!,8,8,10
144,Electroplankton,12,11,8
145,LifeSigns: Surgical Unit,3,11,8
146,Space Invaders Revolution,12,11,4
147,Wii Play,12,11,4
148,New Super Mario Bros.,3,16,4
149,Pokmon Diamond,3,16,5
150,Pokmon Pearl,16,11,5
151,Gears of War,16,9,11
152,The Legend of Zelda: Twilight Princess,16,18,11
153,Cooking Mama,12,18,8
154,Marvel Ultimate Alliance,12,2,11
155,Daxter,3,6,10
156,The Elder Scrolls IV: Oblivion,3,14,1
157,Madden NFL 07,3,3,9
158,Grand Theft Auto: Vice City Stories,16,5,1
159,Resistance: Fall of Man,12,6,7
160,MotorStorm,12,6,11
161,Call of Duty 3,3,2,11
162,Yoshi's Island DS,3,11,11
163,Tom Clancy's Ghost Recon: Advanced Warfighter,3,7,10
164,Fight Night Round 3,3,3,10
165,Pokmon Ranger,12,11,5
166,Rayman Raving Rabbids,12,7,10
167,Saints Row,3,13,1
168,Tom Clancy's Rainbow Six: Vegas,3,7,1
169,Dead Rising,3,1,1
170,Lost Planet: Extreme Condition,16,1,11
171,Mario Hoops 3 on 3,3,11,9
172,LEGO Star Wars II: The Original Trilogy,12,3,1
173,Super Monkey Ball: Banana Blitz,12,8,1
174,The Sims 2: Pets,3,3,8
175,Need for Speed: Carbon - Own the City,12,3,7
176,WarioWare: Smooth Moves,12,11,10
177,Final Fantasy III,3,10,5
178,SOCOM: U.S. Navy SEALs - Fireteam Bravo 2,3,6,10
179,Monster 4x4: World Circuit,12,7,2
180,Kirby: Squeak Squad,12,11,10
181,Pokmon Battle Revolution,3,11,11
182,Medal of Honor: Heroes,3,3,11
183,Tekken: Dark Resurrection,3,4,4
184,Need for Speed: Carbon,12,3,2
185,Mario vs. Donkey Kong 2: March of the Minis,12,11,4
186,Sonic Rivals,3,8,11
187,NCAA Football 07,3,3,9
188,Mortal Kombat: Unchained,3,10,11
189,Tom Clancy's Splinter Cell: Double Agent,16,7,1
190,Tetris DS,8,11,7
191,Red Steel,3,7,4
192,Metroid Prime: Hunters,3,11,10
193,NBA 2K7 ,12,14,9
194,SEGA Genesis Collection,12,8,11
195,NBA Live 07,12,3,9
196,WWE SmackDown vs. Raw 7,12,13,9
197,Tiger Woods PGA Tour 07,3,3,9
198,Viva Pi$?ata,12,9,8
199,SpongeBob Squarepants: Creature from the Krusty Krab,16,13,1
200,Tony Hawk's Project 8,3,2,9
201,NBA LIVE 07 ,16,3,9
202,Excite Truck,12,11,2
203,Harvest Moon DS,12,11,5
204,Star Fox Command,8,11,1
